Group;MSB;LSB;PC;No.;Name;Category;Category No.;Voice;Key Assign
GM2;120;0;0;1;Standard Kit;GM_DRUMS;;;
GM2;120;0;8;2;Room Kit;GM_DRUMS;;;
GM2;120;0;16;3;Power Kit;GM_DRUMS;;;
GM2;120;0;24;4;Electric Kit;GM_DRUMS;;;
GM2;120;0;25;5;Analog Kit;GM_DRUMS;;;
GM2;120;0;32;6;Jazz Kit;GM_DRUMS;;;
GM2;120;0;40;7;Brush Kit;GM_DRUMS;;;
GM2;120;0;48;8;OrchestraKit;GM_DRUMS;;;
GM2;120;0;56;9;Sound FX Kit;GM_DRUMS;;;
