Group;MSB;LSB;PC;No.;Name;Category;Category No.;Voice;Key Assign
GM;;;0;1;Piano 1;GM_PNO;;4;POLY
GM;;;1;2;Piano 2;GM_PNO;;4;POLY
GM;;;2;3;Piano 3;GM_PNO;;1;POLY
GM;;;3;4;Honky-tonk;GM_PNO;;2;POLY
GM;;;4;5;E.Piano 1;GM_PNO;;2;POLY
GM;;;5;6;E.Piano 2;GM_PNO;;2;POLY
GM;;;6;7;Harpsichord;GM_PNO;;1;POLY
GM;;;7;8;Clav.;GM_PNO;;1;POLY
GM;;;8;9;Celesta;GM_CHR;;1;POLY
GM;;;9;10;Glockenspiel;GM_CHR;;1;POLY
GM;;;10;11;Music Box;GM_CHR;;1;POLY
GM;;;11;12;Vibraphone;GM_CHR;;2;POLY
GM;;;12;13;Marimba;GM_CHR;;1;POLY
GM;;;13;14;Xylophone;GM_CHR;;1;POLY
GM;;;14;15;Tubular-bell;GM_CHR;;1;POLY
GM;;;15;16;Santur;GM_CHR;;1;POLY
GM;;;16;17;Organ 1;GM_ORG;;2;POLY
GM;;;17;18;Organ 2;GM_ORG;;2;POLY
GM;;;18;19;Organ 3;GM_ORG;;2;POLY
GM;;;19;20;Church Org.1;GM_ORG;;1;POLY
GM;;;20;21;Reed Organ;GM_ORG;;1;POLY
GM;;;21;22;Accordion Fr;GM_ORG;;2;POLY
GM;;;22;23;Harmonica;GM_ORG;;1;POLY
GM;;;23;24;Bandoneon;GM_ORG;;2;POLY
GM;;;24;25;Nylon-str.Gt;GM_GTR;;1;POLY
GM;;;25;26;Steel-str.Gt;GM_GTR;;1;POLY
GM;;;26;27;Jazz Gt.;GM_GTR;;1;POLY
GM;;;27;28;Clean Gt.;GM_GTR;;1;POLY
GM;;;28;29;Muted Gt.;GM_GTR;;1;POLY
GM;;;29;30;Overdrive Gt;GM_GTR;;2;POLY
GM;;;30;31;DistortionGt;GM_GTR;;2;POLY
GM;;;31;32;Gt.Harmonics;GM_GTR;;1;POLY
GM;;;32;33;Acoustic Bs.;GM_BS;;1;POLY
GM;;;33;34;Fingered Bs.;GM_BS;;1;POLY
GM;;;34;35;Picked Bass;GM_BS;;1;POLY
GM;;;35;36;Fretless Bs.;GM_BS;;1;POLY
GM;;;36;37;Slap Bass 1;GM_BS;;1;POLY
GM;;;37;38;Slap Bass 2;GM_BS;;2;POLY
GM;;;38;39;Synth Bass 1;GM_BS;;1;POLY
GM;;;39;40;Synth Bass 2;GM_BS;;2;POLY
GM;;;40;41;Violin;GM_OS;;1;POLY
GM;;;41;42;Viola;GM_OS;;1;POLY
GM;;;42;43;Cello;GM_OS;;1;POLY
GM;;;43;44;Contrabass;GM_OS;;1;POLY
GM;;;44;45;Tremolo Str;GM_OS;;1;POLY
GM;;;45;46;PizzicatoStr;GM_OS;;1;POLY
GM;;;46;47;Harp;GM_OS;;1;POLY
GM;;;47;48;Timpani;GM_OS;;1;POLY
GM;;;48;49;Strings;GM_OE;;2;POLY
GM;;;49;50;Slow Strings;GM_OE;;1;POLY
GM;;;50;51;Syn.Strings1;GM_OE;;2;POLY
GM;;;51;52;Syn.Strings2;GM_OE;;2;POLY
GM;;;52;53;Choir Aahs;GM_OE;;2;POLY
GM;;;53;54;Voice Oohs;GM_OE;;1;POLY
GM;;;54;55;SynVox;GM_OE;;1;POLY
GM;;;55;56;OrchestraHit;GM_OE;;2;POLY
GM;;;56;57;Trumpet;GM_BRS;;1;POLY
GM;;;57;58;Trombone;GM_BRS;;1;POLY
GM;;;58;59;Tuba;GM_BRS;;1;POLY
GM;;;59;60;MutedTrumpet;GM_BRS;;1;POLY
GM;;;60;61;French Horns;GM_BRS;;2;POLY
GM;;;61;62;Brass 1;GM_BRS;;3;POLY
GM;;;62;63;Synth Brass1;GM_BRS;;2;POLY
GM;;;63;64;Synth Brass2;GM_BRS;;2;POLY
GM;;;64;65;Soprano Sax;GM_REED;;1;POLY
GM;;;65;66;Alto Sax;GM_REED;;1;POLY
GM;;;66;67;Tenor Sax;GM_REED;;2;POLY
GM;;;67;68;Baritone Sax;GM_REED;;1;POLY
GM;;;68;69;Oboe;GM_REED;;2;POLY
GM;;;69;70;English Horn;GM_REED;;1;POLY
GM;;;70;71;Bassoon;GM_REED;;1;POLY
GM;;;71;72;Clarinet;GM_REED;;1;POLY
GM;;;72;73;Piccolo;GM_WND;;1;POLY
GM;;;73;74;Flute;GM_WND;;1;POLY
GM;;;74;75;Recorder;GM_WND;;1;POLY
GM;;;75;76;Pan Flute;GM_WND;;1;POLY
GM;;;76;77;Bottle Blow;GM_WND;;2;POLY
GM;;;77;78;Shakuhachi;GM_WND;;2;POLY
GM;;;78;79;Whistle;GM_WND;;1;POLY
GM;;;79;80;Ocarina;GM_WND;;2;POLY
GM;;;80;81;Square Wave;GM_SLD;;2;POLY
GM;;;81;82;Saw Wave;GM_SLD;;2;POLY
GM;;;82;83;Syn.Calliope;GM_SLD;;2;POLY
GM;;;83;84;Chiffer Lead;GM_SLD;;2;POLY
GM;;;84;85;Charang;GM_SLD;;2;POLY
GM;;;85;86;Solo Vox;GM_SLD;;2;POLY
GM;;;86;87;5th Saw Wave;GM_SLD;;2;POLY
GM;;;87;88;Bass & Lead;GM_SLD;;2;POLY
GM;;;88;89;Fantasia;GM_PAD;;2;POLY
GM;;;89;90;Warm Pad;GM_PAD;;1;POLY
GM;;;90;91;Polysynth;GM_PAD;;2;POLY
GM;;;91;92;Space Voice;GM_PAD;;2;POLY
GM;;;92;93;Bowed Glass;GM_PAD;;3;POLY
GM;;;93;94;Metal Pad;GM_PAD;;3;POLY
GM;;;94;95;Halo Pad;GM_PAD;;2;POLY
GM;;;95;96;Sweep Pad;GM_PAD;;1;POLY
GM;;;96;97;Ice Rain;GM_SFX;;2;POLY
GM;;;97;98;Soundtrack;GM_SFX;;2;POLY
GM;;;98;99;Crystal;GM_SFX;;2;POLY
GM;;;99;100;Atmosphere;GM_SFX;;2;POLY
GM;;;100;101;Brightness;GM_SFX;;2;POLY
GM;;;101;102;Goblin;GM_SFX;;2;POLY
GM;;;102;103;Echo Drops;GM_SFX;;1;POLY
GM;;;103;104;Star Theme;GM_SFX;;2;POLY
GM;;;104;105;Sitar;GM_ETH;;1;POLY
GM;;;105;106;Banjo;GM_ETH;;1;POLY
GM;;;106;107;Shamisen;GM_ETH;;1;POLY
GM;;;107;108;Koto;GM_ETH;;2;POLY
GM;;;108;109;Kalimba;GM_ETH;;1;POLY
GM;;;109;110;Bagpipe;GM_ETH;;2;POLY
GM;;;110;111;Fiddle;GM_ETH;;1;POLY
GM;;;111;112;Shanai;GM_ETH;;1;POLY
GM;;;112;113;Tinkle Bell;GM_PERC;;3;POLY
GM;;;113;114;Agogo;GM_PERC;;1;POLY
GM;;;114;115;Steel Drums;GM_PERC;;1;POLY
GM;;;115;116;Woodblock;GM_PERC;;1;POLY
GM;;;116;117;Taiko;GM_PERC;;3;POLY
GM;;;117;118;Melo. Tom 1;GM_PERC;;1;POLY
GM;;;118;119;Synth Drum;GM_PERC;;2;POLY
GM;;;119;120;Reverse Cym.;GM_PERC;;1;POLY
GM;;;120;121;Gt.FretNoise;GM_FX;;1;POLY
GM;;;121;122;Breath Noise;GM_FX;;1;POLY
GM;;;122;123;Seashore;GM_FX;;1;POLY
GM;;;123;124;Bird;GM_FX;;2;POLY
GM;;;124;125;Telephone 1;GM_FX;;1;POLY
GM;;;125;126;Helicopter;GM_FX;;2;POLY
GM;;;126;127;Applause;GM_FX;;2;POLY
GM;;;127;128;Gun Shot;GM_FX;;1;POLY
