Group;MSB;LSB;PC;No.;Name;Category;Category No.;Voices;Key Assign
SRX-02;93;1;0;1;PremierGrand;PNO;;8;
SRX-02;93;1;1;2;Steady Grand;PNO;;8;
SRX-02;93;1;2;3;DynamicGrand;PNO;;8;
SRX-02;93;1;3;4;Concert Hall;PNO;;8;
SRX-02;93;1;4;5;Bright Grand;PNO;;6;
SRX-02;93;1;5;6;Classical;PNO;;8;
SRX-02;93;1;6;7;SoftPdlGrand;PNO;;8;
SRX-02;93;1;7;8;OnMicPremier;PNO;;8;
SRX-02;93;1;8;9;OnMic Bright;PNO;;6;
SRX-02;93;1;9;10;OnMicSoftPdl;PNO;;8;
SRX-02;93;1;10;11;Premier Mono;PNO;;4;
SRX-02;93;1;11;12;Bright Mono;PNO;;3;
SRX-02;93;1;12;13;SoftPdl Mono;PNO;;4;
SRX-02;93;1;13;14;Mellow Piano;PNO;;4;
SRX-02;93;1;14;15;Enhanced Pno;PNO;;7;
SRX-02;93;1;15;16;Comp.Piano;PNO;;6;
SRX-02;93;1;16;17;HonkytonkPno;PNO;;4;
SRX-02;93;1;17;18;NewAgeGrand1;PNO;;8;
SRX-02;93;1;18;19;NewAgeGrand2;PNO;;8;
SRX-02;93;1;19;20;Requiem;PNO;;6;
SRX-02;93;1;20;21;Soundscape;PNO;;7;
SRX-02;93;1;21;22;Grand w/Str;PNO;;8;
SRX-02;93;1;22;23;Concerto 1;PNO;;8;
SRX-02;93;1;23;24;Concerto 2;PNO;;7;
SRX-02;93;1;24;25;SoftpadGrand;PNO;;6;
SRX-02;93;1;25;26;Synpad Grand;PNO;;6;
SRX-02;93;1;26;27;Vox Grand 1;PNO;;6;
SRX-02;93;1;27;28;Vox Grand 2;PNO;;7;
SRX-02;93;1;28;29;Oohs Piano;PNO;;6;
SRX-02;93;1;29;30;Air Grand;PNO;;7;
SRX-02;93;1;30;31;GtrPad Grand;SPD;;6;
SRX-02;93;1;31;32;PhasePad Pno;SPD;;6;
SRX-02;93;1;32;33;HeavenPadPno;SPD;;6;
SRX-02;93;1;33;34;Somber Pad;SPD;;6;
SRX-02;93;1;34;35;Wet Chorus;PNO;;8;
SRX-02;93;1;35;36;Nylon Grand;PNO;;5;
SRX-02;93;1;36;37;FM EP Grand;EP;;5;
SRX-02;93;1;37;38;Bell Grand;EP;;6;
SRX-02;93;1;38;39;Bellvox Pno;BEL;;6;
SRX-02;93;1;39;40;StackedGrand;EP;;7;
SRX-02;93;1;40;41;Hard Stack 1;PNO;;6;
SRX-02;93;1;41;42;Hard Stack 2;PNO;;6;
SRX-02;93;1;42;43;PianoBrass;PNO;;5;
SRX-02;93;1;43;44;PianoBrs fff;PNO;;8;
SRX-02;93;1;44;45;Gig Split 1;CMB;;7;
SRX-02;93;1;45;46;Gig Split 2;CMB;;7;
SRX-02;93;1;46;47;Gig Split 3;CMB;;7;
SRX-02;93;1;47;48;Throb Piano;PLS;;7;
SRX-02;93;1;48;49;Feedback Pno;FX;;4;
SRX-02;93;1;49;50;Eastern 5th;BPD;;5;
